module gitlab.com/njohnstone/cmc_exporter

go 1.16

require (
	github.com/PuerkitoBio/goquery v1.5.1 // indirect
	github.com/alecthomas/units v0.0.0-20210208195552-ff826a37aa15 // indirect
	github.com/andybalholm/cascadia v1.2.0 // indirect
	github.com/antchfx/htmlquery v1.2.3 // indirect
	github.com/antchfx/xmlquery v1.2.4 // indirect
	github.com/antchfx/xpath v1.1.8 // indirect
	github.com/go-kit/kit v0.11.0
	github.com/go-kit/log v0.1.0
	github.com/gobwas/glob v0.2.3 // indirect
	github.com/gocolly/colly v1.2.0
	github.com/kennygrant/sanitize v1.2.4 // indirect
	github.com/prometheus/client_golang v1.11.0
	github.com/prometheus/common v0.30.0
	github.com/prometheus/exporter-toolkit v0.6.0
	github.com/prometheus/procfs v0.7.1 // indirect
	github.com/saintfish/chardet v0.0.0-20120816061221-3af4cd4741ca // indirect
	github.com/temoto/robotstxt v1.1.1 // indirect
	golang.org/x/net v0.0.0-20210726213435-c6fcb2dbf985 // indirect
	golang.org/x/oauth2 v0.0.0-20210628180205-a41e5a781914 // indirect
	golang.org/x/sys v0.0.0-20210630005230-0f9fa26af87c // indirect
	google.golang.org/appengine v1.6.7 // indirect
	gopkg.in/alecthomas/kingpin.v2 v2.2.6
)
